{
  "images" : [
    {
      "idiom" : "iphone",
      "filename" : "iPhone App Icon iOS 5,6.png",
      "scale" : "1x"
    },
    {
      "idiom" : "iphone",
      "filename" : "iPhone App Icon iOS 7,9@2x.png",
      "scale" : "2x"
    },
    {
      "idiom" : "iphone",
      "filename" : "iPhone App Icon iOS 7,9@3x.png",
      "scale" : "3x"
    }
  ],
  "info" : {
    "version" : 1,
    "author" : "xcode"
  }
}